
{"content":[{"id":14,"productInfo":{"id":14,"brandId":1,"catId":100000000,"name":"barduvaSC-1600","nameAlias":null,"price":290000,"priceType":"0","remark":null,"introduce":null,"state":"0","checked":"1","supcatid":"001001001","publishMan":null,"publishTime":null,"updateMan":null,"updateTime":null,"deleteMan":null,"deleteTime":null,"checkMan":null,"checkTime":null},"name":"//img002.hc360.cn/k2/M05/0F/A6/wKhQxFgIycWEYSjcAAAAAI6fj9Q743.jpg..180x180.jpg","defaultflag":"1","type":"1","sort":1,"note":null,"width":800,"height":600},{"id":13,"productInfo":{"id":13,"brandId":1,"catId":100000000,"name":"barduvaSC-1500","nameAlias":null,"price":290000,"priceType":"0","remark":null,"introduce":null,"state":"0","checked":"1","supcatid":"001001001","publishMan":null,"publishTime":null,"updateMan":null,"updateTime":null,"deleteMan":null,"deleteTime":null,"checkMan":null,"checkTime":null},"name":"//img002.hc360.cn/k2/M05/0F/A6/wKhQxFgIycWEYSjcAAAAAI6fj9Q743.jpg..180x180.jpg","defaultflag":"1","type":"1","sort":1,"note":null,"width":800,"height":600},{"id":12,"productInfo":{"id":12,"brandId":1,"catId":100000000,"name":"barduvaSC-1400","nameAlias":null,"price":290000,"priceType":"0","remark":null,"introduce":null,"state":"0","checked":"1","supcatid":"001001001","publishMan":null,"publishTime":null,"updateMan":null,"updateTime":null,"deleteMan":null,"deleteTime":null,"checkMan":null,"checkTime":null},"name":"//img002.hc360.cn/k2/M05/0F/A6/wKhQxFgIycWEYSjcAAAAAI6fj9Q743.jpg..180x180.jpg","defaultflag":"1","type":"1","sort":1,"note":null,"width":800,"height":600},{"id":11,"productInfo":{"id":11,"brandId":1,"catId":100000000,"name":"barduvaSC-1300","nameAlias":null,"price":290000,"priceType":"0","remark":null,"introduce":null,"state":"0","checked":"1","supcatid":"001001001","publishMan":null,"publishTime":null,"updateMan":null,"updateTime":null,"deleteMan":null,"deleteTime":null,"checkMan":null,"checkTime":null},"name":"//img002.hc360.cn/k2/M05/0F/A6/wKhQxFgIycWEYSjcAAAAAI6fj9Q743.jpg..180x180.jpg","defaultflag":"1","type":"1","sort":1,"note":null,"width":800,"height":600},{"id":10,"productInfo":{"id":10,"brandId":1,"catId":100000000,"name":"barduvaSC-1200","nameAlias":null,"price":290000,"priceType":"0","remark":null,"introduce":null,"state":"0","checked":"1","supcatid":"001001001","publishMan":null,"publishTime":null,"updateMan":null,"updateTime":null,"deleteMan":null,"deleteTime":null,"checkMan":null,"checkTime":null},"name":"//img002.hc360.cn/k2/M05/0F/A6/wKhQxFgIycWEYSjcAAAAAI6fj9Q743.jpg..180x180.jpg","defaultflag":"1","type":"1","sort":1,"note":null,"width":800,"height":600},{"id":9,"productInfo":{"id":9,"brandId":1,"catId":100000000,"name":"barduvaSC-1100","nameAlias":null,"price":290000,"priceType":"0","remark":null,"introduce":null,"state":"0","checked":"1","supcatid":"001001001","publishMan":null,"publishTime":null,"updateMan":null,"updateTime":null,"deleteMan":null,"deleteTime":null,"checkMan":null,"checkTime":null},"name":"//img002.hc360.cn/k2/M05/0F/A6/wKhQxFgIycWEYSjcAAAAAI6fj9Q743.jpg..180x180.jpg","defaultflag":"1","type":"1","sort":1,"note":null,"width":800,"height":600},{"id":8,"productInfo":{"id":8,"brandId":1,"catId":100000000,"name":"barduvaSC-1000","nameAlias":null,"price":290000,"priceType":"0","remark":null,"introduce":null,"state":"0","checked":"1","supcatid":"001001001","publishMan":null,"publishTime":null,"updateMan":null,"updateTime":null,"deleteMan":null,"deleteTime":null,"checkMan":null,"checkTime":null},"name":"//img002.hc360.cn/k2/M05/0F/A6/wKhQxFgIycWEYSjcAAAAAI6fj9Q743.jpg..180x180.jpg","defaultflag":"1","type":"1","sort":1,"note":null,"width":800,"height":600},{"id":7,"productInfo":{"id":7,"brandId":1,"catId":100000000,"name":"barduvaSC-900","nameAlias":null,"price":290000,"priceType":"0","remark":null,"introduce":null,"state":"0","checked":"1","supcatid":"001001001","publishMan":null,"publishTime":null,"updateMan":null,"updateTime":null,"deleteMan":null,"deleteTime":null,"checkMan":null,"checkTime":null},"name":"//img002.hc360.cn/k2/M05/0F/A6/wKhQxFgIycWEYSjcAAAAAI6fj9Q743.jpg..180x180.jpg","defaultflag":"1","type":"1","sort":1,"note":null,"width":800,"height":600},{"id":6,"productInfo":{"id":6,"brandId":1,"catId":100000000,"name":"barduvaSC-800","nameAlias":null,"price":290000,"priceType":"0","remark":null,"introduce":null,"state":"0","checked":"1","supcatid":"001001001","publishMan":null,"publishTime":null,"updateMan":null,"updateTime":null,"deleteMan":null,"deleteTime":null,"checkMan":null,"checkTime":null},"name":"//img002.hc360.cn/k2/M05/0F/A6/wKhQxFgIycWEYSjcAAAAAI6fj9Q743.jpg..180x180.jpg","defaultflag":"1","type":"1","sort":1,"note":null,"width":800,"height":600},{"id":5,"productInfo":{"id":5,"brandId":1,"catId":100000000,"name":"barduvaSC-700","nameAlias":null,"price":290000,"priceType":"0","remark":null,"introduce":null,"state":"0","checked":"1","supcatid":"001001001","publishMan":null,"publishTime":null,"updateMan":null,"updateTime":null,"deleteMan":null,"deleteTime":null,"checkMan":null,"checkTime":null},"name":"//img002.hc360.cn/k2/M05/0F/A6/wKhQxFgIycWEYSjcAAAAAI6fj9Q743.jpg..180x180.jpg","defaultflag":"1","type":"1","sort":1,"note":null,"width":800,"height":600}],"last":false,"totalElements":24,"totalPages":3,"number":1,"sort":null,"first":false,"numberOfElements":10,"size":10}
